<svg xmlns="http://www.w3.org/2000/svg" width="30" height="30" viewBox="0 0 30 30">
  <g id="Group_1" data-name="Group 1" transform="translate(-3 -3)">
    <path id="Icon_ionic-md-person" data-name="Icon ionic-md-person" d="M18,18a6.75,6.75,0,1,0-6.75-6.75A6.75,6.75,0,0,0,18,18Zm0,3.375c-4.472,0-13.5,2.278-13.5,6.75V31.5h27V28.125C31.5,23.653,22.472,21.375,18,21.375Z" fill="rgba(255,255,255,0)" stroke="#295eb4" stroke-width="3"/>
  </g>
</svg>
