<svg xmlns="http://www.w3.org/2000/svg" width="50" height="50" viewBox="0 0 50 50">
  <g id="Group_1" data-name="Group 1" transform="translate(-1250 -376)">
    <g id="Group_2" data-name="Group 2" transform="translate(1303 517)">
      <g id="Group_1-2" data-name="Group 1">
        <rect id="Rectangle_1" data-name="Rectangle 1" width="50" height="50" transform="translate(-53 -141)" fill="rgba(255,255,255,0)"/>
      </g>
      <path id="Icon_awesome-xbox" data-name="Icon awesome-xbox" d="M26.009,22.373c3.115,3.818,4.549,6.947,3.825,8.346-.555,1.062-3.987,3.136-6.511,3.93a19.14,19.14,0,0,1-7.059.717,17.488,17.488,0,0,1-7.741-2.742c-1.962-1.28-2.4-1.807-2.4-2.855,0-2.1,2.313-5.787,6.272-9.991,2.25-2.384,5.379-5.182,5.723-5.1.661.148,5.927,5.28,7.9,7.7ZM13.261,10.111C11.173,8.22,9.176,6.321,7.186,5.653c-1.069-.359-1.146-.338-2.018.57a17.428,17.428,0,0,0-4.24,8.606,13.587,13.587,0,0,0-.3,4.254,18,18,0,0,0,2.848,8.5c.668,1.027.851,1.216.654.7-.3-.773-.021-2.637.668-4.5a53.722,53.722,0,0,1,8.459-13.669ZM35.17,14.576c-1.188-5.625-4.746-9.162-5.245-9.162a6.562,6.562,0,0,0-2.531.977A30.448,30.448,0,0,0,22.873,10.1c2.981,3.748,7.186,9.8,8.641,14.224A8.425,8.425,0,0,1,32.034,28c-.12.6-.12.6.1.323a21.313,21.313,0,0,0,1.786-3.059,20.638,20.638,0,0,0,1.308-4.127,22.841,22.841,0,0,0-.056-6.567ZM9.935,3.023c3.354-.176,7.713,2.426,8.037,2.489a13.993,13.993,0,0,0,1.519-.682c4.493-2.187,6.609-1.814,7.552-1.772A17.409,17.409,0,0,0,10.6,2.236c-1.645.78-1.687.837-.661.787Z" transform="translate(-46.001 -134)" fill="#fff" stroke="#fff" stroke-width="1"/>
    </g>
  </g>
</svg>
